<svg width="13" height="16" viewBox="0 0 13 16" fill="none" xmlns="http://www.w3.org/2000/svg">
<path d="M11.8459 0.5H1.15382C0.643329 0.5 0.229492 0.913837 0.229492 1.42433V14.5756C0.229492 15.0862 0.643329 15.5 1.15382 15.5H11.8459C12.3564 15.5 12.7702 15.0862 12.7702 14.5757V1.42433C12.7702 0.913837 12.3564 0.5 11.8459 0.5ZM2.56229 11.9674C2.06402 11.9674 1.6601 11.5635 1.6601 11.0652C1.6601 10.567 2.06402 10.163 2.56229 10.163C3.06055 10.163 3.46447 10.567 3.46447 11.0652C3.46447 11.5635 3.06055 11.9674 2.56229 11.9674ZM2.56229 8.90218C2.06402 8.90218 1.6601 8.49826 1.6601 8C1.6601 7.50174 2.06402 7.09782 2.56229 7.09782C3.06055 7.09782 3.46447 7.50174 3.46447 8C3.46447 8.49826 3.06055 8.90218 2.56229 8.90218ZM2.56229 5.83697C2.06402 5.83697 1.6601 5.43304 1.6601 4.93478C1.6601 4.43652 2.06402 4.0326 2.56229 4.0326C3.06055 4.0326 3.46447 4.43652 3.46447 4.93478C3.46447 5.43304 3.06055 5.83697 2.56229 5.83697ZM10.557 11.8804H4.98397C4.53374 11.8804 4.16875 11.5154 4.16875 11.0652C4.16875 10.615 4.53374 10.25 4.98397 10.25H10.557C11.0072 10.25 11.3722 10.615 11.3722 11.0652C11.3722 11.5154 11.0072 11.8804 10.557 11.8804ZM10.557 8.81522H4.98397C4.53374 8.81522 4.16875 8.45023 4.16875 8C4.16875 7.54977 4.53374 7.18478 4.98397 7.18478H10.557C11.0072 7.18478 11.3722 7.54977 11.3722 8C11.3722 8.45023 11.0072 8.81522 10.557 8.81522ZM10.557 5.75H4.98397C4.53374 5.75 4.16875 5.38501 4.16875 4.93478C4.16875 4.48455 4.53374 4.11957 4.98397 4.11957H10.557C11.0072 4.11957 11.3722 4.48455 11.3722 4.93478C11.3722 5.38501 11.0072 5.75 10.557 5.75Z" fill="#464646"/>
</svg>
